[
    {
        "annotations": [
            {
                "class": "point",
                "x": 1908.2540249485612,
                "y": 97.87992243271552
            },
            {
                "class": "rect",
                "height": 189.73250906754063,
                "width": 1860.710045065881,
                "x": 6.6572810199137065,
                "y": 9.98592152987056
            }
        ],
        "class": "image",
        "filename": "extractedFrames/5cmStraightA02_0.jpg"
    },
    {
        "annotations": [
            {
                "class": "point",
                "x": 870.4032771702637,
                "y": 161.7849957565546
            },
            {
                "class": "point",
                "x": 1587.1108083718004,
                "y": 140.7529463082025
            },
            {
                "class": "point",
                "x": 1770.73677855549,
                "y": 105.16024724176047
            },
            {
                "class": "point",
                "x": 1770.73677855549,
                "y": 137.5172463930714
            },
            {
                "class": "point",
                "x": 2181.6706677771385,
                "y": 93.83529753880165
            },
            {
                "class": "point",
                "x": 2187.333142628618,
                "y": 124.57444673254703
            }
        ],
        "class": "image",
        "filename": "extractedFrames/5cmStraightA02_102.jpg"
    },
    {
        "annotations": [
            {
                "class": "point",
                "x": 2309.480814424817,
                "y": 88.98174766610502
            },
            {
                "class": "point",
                "x": 2314.3343642975133,
                "y": 120.52982183863317
            },
            {
                "class": "point",
                "x": 1896.9290752456025,
                "y": 101.11562234784661
            },
            {
                "class": "point",
                "x": 1898.546925203168,
                "y": 131.854771541592
            },
            {
                "class": "point",
                "x": 1725.4369797436545,
                "y": 136.70832141428863
            },
            {
                "class": "point",
                "x": 1001.4491237330728,
                "y": 159.35822082020627
            }
        ],
        "class": "image",
        "filename": "extractedFrames/5cmStraightA02_107.jpg"
    },
    {
        "annotations": [
            {
                "class": "point",
                "x": 1102.5647460809196,
                "y": 154.50467094750962
            },
            {
                "class": "point",
                "x": 1833.8329269005462,
                "y": 131.854771541592
            },
            {
                "class": "point",
                "x": 1999.6625475510148,
                "y": 128.6190716264609
            },
            {
                "class": "point",
                "x": 1998.8536225722319,
                "y": 98.6888474114983
            }
        ],
        "class": "image",
        "filename": "extractedFrames/5cmStraightA02_111.jpg"
    },
    {
        "annotations": [
            {
                "class": "point",
                "x": 1231.9927426861632,
                "y": 149.65112107481298
            },
            {
                "class": "point",
                "x": 1962.4519985270072,
                "y": 125.3833717113298
            },
            {
                "class": "point",
                "x": 2125.0459192623443,
                "y": 93.83529753880165
            },
            {
                "class": "point",
                "x": 2129.090544156258,
                "y": 125.3833717113298
            }
        ],
        "class": "image",
        "filename": "extractedFrames/5cmStraightA02_116.jpg"
    },
    {
        "annotations": [
            {
                "class": "point",
                "x": 1335.5351399703582,
                "y": 148.03327111724744
            },
            {
                "class": "point",
                "x": 2059.52299598094,
                "y": 121.33874681741594
            },
            {
                "class": "point",
                "x": 2231.8240164616705,
                "y": 122.14767179619871
            },
            {
                "class": "point",
                "x": 2228.5883165465393,
                "y": 91.40852260245335
            }
        ],
        "class": "image",
        "filename": "extractedFrames/5cmStraightA02_120.jpg"
    },
    {
        "annotations": [
            {
                "class": "point",
                "x": 1466.5809865331673,
                "y": 143.17972124455082
            },
            {
                "class": "point",
                "x": 2181.6706677771385,
                "y": 117.29412192350208
            }
        ],
        "class": "image",
        "filename": "extractedFrames/5cmStraightA02_125.jpg"
    },
    {
        "annotations": [
            {
                "class": "point",
                "x": 2244.766816122195,
                "y": 90.59959762367056
            },
            {
                "class": "point",
                "x": 98.6888474114983,
                "y": 184.43489516247223
            }
        ],
        "class": "image",
        "filename": "extractedFrames/5cmStraightA02_13.jpg"
    },
    {
        "annotations": [],
        "class": "image",
        "filename": "extractedFrames/5cmStraightA02_134.jpg"
    },
    {
        "annotations": [
            {
                "class": "point",
                "x": 150.46004605359576,
                "y": 183.62597018368945
            },
            {
                "class": "point",
                "x": 2295.7290897855096,
                "y": 87.36389770853947
            }
        ],
        "class": "image",
        "filename": "extractedFrames/5cmStraightA02_15.jpg"
    },
    {
        "annotations": [
            {
                "class": "point",
                "x": 1959.216298611876,
                "y": 98.6888474114983
            }
        ],
        "class": "image",
        "filename": "extractedFrames/5cmStraightA02_2.jpg"
    },
    {
        "annotations": [
            {
                "class": "point",
                "x": 184.43489516247223,
                "y": 150.46004605359576
            },
            {
                "class": "point",
                "x": 188.4795200563861,
                "y": 183.62597018368945
            },
            {
                "class": "point",
                "x": 381.81258998546883,
                "y": 177.15457035342726
            }
        ],
        "class": "image",
        "filename": "extractedFrames/5cmStraightA02_24.jpg"
    },
    {
        "annotations": [
            {
                "class": "point",
                "x": 313.0539667889331,
                "y": 147.22434613846468
            },
            {
                "class": "point",
                "x": 317.098591682847,
                "y": 177.96349533221004
            },
            {
                "class": "point",
                "x": 508.81381165436414,
                "y": 172.30102048073064
            }
        ],
        "class": "image",
        "filename": "extractedFrames/5cmStraightA02_29.jpg"
    },
    {
        "annotations": [
            {
                "class": "point",
                "x": 611.5472839597763,
                "y": 169.06532056559954
            },
            {
                "class": "point",
                "x": 419.83206398825916,
                "y": 174.72779541707894
            },
            {
                "class": "point",
                "x": 413.36066415799695,
                "y": 144.79757120211636
            },
            {
                "class": "point",
                "x": 6.471399830262183,
                "y": 154.50467094750962
            },
            {
                "class": "point",
                "x": 9.707099745393275,
                "y": 186.05274512003777
            }
        ],
        "class": "image",
        "filename": "extractedFrames/5cmStraightA02_33.jpg"
    },
    {
        "annotations": [
            {
                "class": "point",
                "x": 137.5172463930714,
                "y": 150.46004605359576
            },
            {
                "class": "point",
                "x": 137.5172463930714,
                "y": 184.43489516247223
            },
            {
                "class": "point",
                "x": 541.9797357844578,
                "y": 139.9440213294197
            },
            {
                "class": "point",
                "x": 547.6422106359373,
                "y": 170.68317052316507
            },
            {
                "class": "point",
                "x": 738.5485056286717,
                "y": 166.6385456292512
            }
        ],
        "class": "image",
        "filename": "extractedFrames/5cmStraightA02_38.jpg"
    },
    {
        "annotations": [
            {
                "class": "point",
                "x": 50.9622736633147,
                "y": 184.43489516247223
            },
            {
                "class": "point",
                "x": 240.25071869848355,
                "y": 148.84219609603022
            },
            {
                "class": "point",
                "x": 241.8685686560491,
                "y": 180.39027026855837
            },
            {
                "class": "point",
                "x": 644.71320808987,
                "y": 135.89939643550585
            },
            {
                "class": "point",
                "x": 650.3756829413494,
                "y": 168.25639558681678
            },
            {
                "class": "point",
                "x": 841.2819779340838,
                "y": 162.59392073533735
            }
        ],
        "class": "image",
        "filename": "extractedFrames/5cmStraightA02_42.jpg"
    },
    {
        "annotations": [
            {
                "class": "point",
                "x": 966.6653496454136,
                "y": 158.5492958414235
            },
            {
                "class": "point",
                "x": 778.1858295890275,
                "y": 164.2117706929029
            },
            {
                "class": "point",
                "x": 773.332279716331,
                "y": 132.66369652037477
            },
            {
                "class": "point",
                "x": 366.4430153885961,
                "y": 144.79757120211636
            },
            {
                "class": "point",
                "x": 368.86979032494446,
                "y": 176.3456453746445
            },
            {
                "class": "point",
                "x": 186.86167009882055,
                "y": 180.39027026855837
            }
        ],
        "class": "image",
        "filename": "extractedFrames/5cmStraightA02_47.jpg"
    },
    {
        "annotations": [
            {
                "class": "point",
                "x": 292.021917340581,
                "y": 173.91887043829618
            },
            {
                "class": "point",
                "x": 466.74971275765995,
                "y": 142.37079626576804
            },
            {
                "class": "point",
                "x": 470.7943376515738,
                "y": 173.1099454595134
            },
            {
                "class": "point",
                "x": 873.6389770853948,
                "y": 131.0458465628092
            },
            {
                "class": "point",
                "x": 880.110376915657,
                "y": 162.59392073533735
            },
            {
                "class": "point",
                "x": 1067.7809719932602,
                "y": 156.12252090507516
            }
        ],
        "class": "image",
        "filename": "extractedFrames/5cmStraightA02_51.jpg"
    },
    {
        "annotations": [
            {
                "class": "point",
                "x": 1197.2089685985038,
                "y": 151.26897103237854
            },
            {
                "class": "point",
                "x": 1005.4937486269868,
                "y": 159.35822082020627
            },
            {
                "class": "point",
                "x": 1002.2580487118556,
                "y": 127.81014664767812
            },
            {
                "class": "point",
                "x": 592.9420094477725,
                "y": 138.32617137185417
            },
            {
                "class": "point",
                "x": 596.1777093629037,
                "y": 169.06532056559954
            },
            {
                "class": "point",
                "x": 414.9785141155625,
                "y": 168.25639558681678
            }
        ],
        "class": "image",
        "filename": "extractedFrames/5cmStraightA02_56.jpg"
    },
    {
        "annotations": [
            {
                "class": "point",
                "x": 510.4316616119297,
                "y": 165.02069567168567
            },
            {
                "class": "point",
                "x": 696.4844067319675,
                "y": 133.47262149915753
            },
            {
                "class": "point",
                "x": 698.1022566895331,
                "y": 167.447470608034
            },
            {
                "class": "point",
                "x": 1107.418295953616,
                "y": 122.95659677498148
            },
            {
                "class": "point",
                "x": 1107.418295953616,
                "y": 156.12252090507516
            },
            {
                "class": "point",
                "x": 1301.5602908614817,
                "y": 150.46004605359576
            }
        ],
        "class": "image",
        "filename": "extractedFrames/5cmStraightA02_60.jpg"
    },
    {
        "annotations": [
            {
                "class": "point",
                "x": 633.3882583869112,
                "y": 163.40284571412013
            },
            {
                "class": "point",
                "x": 824.2945533796455,
                "y": 131.854771541592
            },
            {
                "class": "point",
                "x": 825.9124033372111,
                "y": 162.59392073533735
            },
            {
                "class": "point",
                "x": 1234.4195176225114,
                "y": 120.52982183863317
            },
            {
                "class": "point",
                "x": 1237.6552175376426,
                "y": 150.46004605359576
            },
            {
                "class": "point",
                "x": 1426.9436625728115,
                "y": 148.03327111724744
            }
        ],
        "class": "image",
        "filename": "extractedFrames/5cmStraightA02_65.jpg"
    },
    {
        "annotations": [
            {
                "class": "point",
                "x": 2087.835370238337,
                "y": 94.64422251758444
            }
        ],
        "class": "image",
        "filename": "extractedFrames/5cmStraightA02_7.jpg"
    },
    {
        "annotations": [
            {
                "class": "point",
                "x": 146.4154211596819,
                "y": 183.62597018368945
            },
            {
                "class": "point",
                "x": 872.830052106612,
                "y": 161.7849957565546
            },
            {
                "class": "point",
                "x": 1055.6470973115186,
                "y": 125.3833717113298
            },
            {
                "class": "point",
                "x": 1057.2649472690841,
                "y": 157.74037086264073
            },
            {
                "class": "point",
                "x": 1462.5363616392535,
                "y": 112.44057205080543
            },
            {
                "class": "point",
                "x": 1469.0077614695156,
                "y": 142.37079626576804
            },
            {
                "class": "point",
                "x": 1661.5319064198156,
                "y": 139.13509635063693
            }
        ],
        "class": "image",
        "filename": "extractedFrames/5cmStraightA02_74.jpg"
    },
    {
        "annotations": [
            {
                "class": "point",
                "x": 1792.5777529826248,
                "y": 134.2815464779403
            },
            {
                "class": "point",
                "x": 1598.4357580747592,
                "y": 141.56187128698525
            },
            {
                "class": "point",
                "x": 1592.7732832232798,
                "y": 109.20487213567435
            },
            {
                "class": "point",
                "x": 1182.648318980414,
                "y": 120.52982183863317
            },
            {
                "class": "point",
                "x": 1182.648318980414,
                "y": 152.0778960111613
            },
            {
                "class": "point",
                "x": 1008.7294485421178,
                "y": 158.5492958414235
            },
            {
                "class": "point",
                "x": 276.65234274370835,
                "y": 179.58134528977558
            },
            {
                "class": "rect",
                "height": 201.0,
                "width": 485.0,
                "x": 1836.0,
                "y": 6.0
            },
            {
                "class": "rect",
                "height": 153.88342687873038,
                "width": 612.6302466304172,
                "x": 329.5428103912434,
                "y": 50.81056547882607
            }
        ],
        "class": "image",
        "filename": "extractedFrames/5cmStraightA02_79.jpg"
    },
    {
        "annotations": [
            {
                "class": "point",
                "x": 376.9590401127722,
                "y": 175.53672039586172
            },
            {
                "class": "point",
                "x": 1113.8896957838783,
                "y": 149.65112107481298
            },
            {
                "class": "point",
                "x": 1282.146091370695,
                "y": 116.4851969447193
            },
            {
                "class": "point",
                "x": 1286.190716264609,
                "y": 148.03327111724744
            },
            {
                "class": "point",
                "x": 1693.8889055711265,
                "y": 105.96917222054326
            },
            {
                "class": "point",
                "x": 1702.787080337737,
                "y": 138.32617137185417
            },
            {
                "class": "point",
                "x": 1892.0755253729058,
                "y": 129.42799660524366
            }
        ],
        "class": "image",
        "filename": "extractedFrames/5cmStraightA02_83.jpg"
    },
    {
        "annotations": [
            {
                "class": "point",
                "x": 2016.649972105453,
                "y": 127.81014664767812
            },
            {
                "class": "point",
                "x": 1830.597226985415,
                "y": 133.47262149915753
            },
            {
                "class": "point",
                "x": 1825.7436771127184,
                "y": 101.9245473266294
            },
            {
                "class": "point",
                "x": 1409.1473130395905,
                "y": 113.24949702958821
            },
            {
                "class": "point",
                "x": 1410.765162997156,
                "y": 146.4154211596819
            },
            {
                "class": "point",
                "x": 1238.4641425164252,
                "y": 143.98864622333357
            },
            {
                "class": "point",
                "x": 506.38703671801585,
                "y": 171.49209550194786
            }
        ],
        "class": "image",
        "filename": "extractedFrames/5cmStraightA02_88.jpg"
    },
    {
        "annotations": [
            {
                "class": "point",
                "x": 610.7383589809936,
                "y": 169.06532056559954
            },
            {
                "class": "point",
                "x": 1332.299440055227,
                "y": 139.9440213294197
            },
            {
                "class": "point",
                "x": 1511.0718603662199,
                "y": 110.82272209323989
            },
            {
                "class": "point",
                "x": 1514.307560281351,
                "y": 142.37079626576804
            },
            {
                "class": "point",
                "x": 1927.6682244393478,
                "y": 100.30669736906384
            },
            {
                "class": "point",
                "x": 1930.903924354479,
                "y": 131.0458465628092
            },
            {
                "class": "point",
                "x": 2117.7655944532994,
                "y": 127.00122166889535
            }
        ],
        "class": "image",
        "filename": "extractedFrames/5cmStraightA02_92.jpg"
    },
    {
        "annotations": [
            {
                "class": "point",
                "x": 2245.5757411009777,
                "y": 122.14767179619871
            },
            {
                "class": "point",
                "x": 2057.9051460233745,
                "y": 128.6190716264609
            },
            {
                "class": "point",
                "x": 2053.8605211294603,
                "y": 95.45314749636721
            },
            {
                "class": "point",
                "x": 1640.4998569714635,
                "y": 106.77809719932603
            },
            {
                "class": "point",
                "x": 1640.4998569714635,
                "y": 138.32617137185417
            },
            {
                "class": "point",
                "x": 1456.0649618089913,
                "y": 137.5172463930714
            },
            {
                "class": "point",
                "x": 740.1663555862373,
                "y": 164.2117706929029
            },
            {
                "class": "rect",
                "height": 130.65573980269562,
                "width": 108.87978316891304,
                "x": 1517.0583121535212,
                "y": 53.71402636333042
            },
            {
                "class": "rect",
                "height": 71.13479167035649,
                "width": 254.0528273941303,
                "x": 569.078333362852,
                "y": 81.29690476612171
            }
        ],
        "class": "image",
        "filename": "extractedFrames/5cmStraightA02_97.jpg"
    }
]
